%YAML 1.1
%TAG !u! tag:unity3d.com,2011:
--- !u!114 &11400000
MonoBehaviour:
  m_ObjectHideFlags: 0
  m_CorrespondingSourceObject: {fileID: 0}
  m_PrefabInstance: {fileID: 0}
  m_PrefabAsset: {fileID: 0}
  m_GameObject: {fileID: 0}
  m_Enabled: 1
  m_EditorHideFlags: 0
  m_Script: {fileID: 11500000, guid: a0fcf04d25bcfd345a927098469fe76e, type: 3}
  m_Name: Food_Veggie
  m_EditorClassIdentifier: 
  name: Veggie
  description: green
  artwork: {fileID: 21300000, guid: 419945c3965232742919d4496bab02a2, type: 3}
  cost: 1
  rarity: commond
  type: Ingredient
